instr,test
1,73
1,88
1,60
1,54
1,73
1,68
1,76
1,71
1,56
1,64
1,69
1,84
1,72
1,81
1,72
1,64
1,80
1,91
1,89
1,72
1,84
1,63
1,55
1,87
1,82
1,74
1,93
1,60
1,51
1,74
1,88
1,82
1,62
1,82
1,76
2,64
2,85
2,77
2,70
2,90
2,77
2,65
2,77
2,85
2,71
2,79
2,73
2,90
2,78
2,72
2,57
2,66
2,93
2,78
2,79
2,81
2,70
2,67
2,85
2,81
2,72
2,69
2,65
2,69
2,82
2,62
2,86
2,96
2,69
2,58
